{
  "type": "service_account",
  "project_id": "app-webasamblea",
  "private_key_id": "3006ee1d4b9414235d0538c85999d8dcd1d4166f",
  "private_key": "-----BEGIN PRIVATE KEY-----\nMIIEvQIBADANBgkqhkiG9w0BAQEFAASCBKcwggSjAgEAAoIBAQDNHe4+/gWWA6jt\nndiD7gl5+DrEs5nhR+MRY1bNUDMlpjPSo4A8OTqOB0yjF97MNQzEipgtZEUn5RUs\nu3WbjkIDf7mNbXlpETvjj/VL82Lx7YWYGqThwgEP7ebAwfA7+KuqnzeYVN7csPx8\ntzrBkDac57vLdIrXxxZlWsRi/zuoWxeTu0YaEef6pmKLO2pSaOKeUg4nXwpAF6uW\nIBZirdul9U6sm2CpU/+zq+izlCBY9RitN+jKVWDnSeAJNthJS7bxwYODh/HwnnJd\nP7NG6pMTONJu02nGTH0kcSUtJ8VNS2o+dq4haJFpbfrywQZjC0dRkOj8tERdy5Uq\nm9/wMY5ZAgMBAAECggEAEUqsCGuwAx3nHnQDehjFu/5vDuDQsMcXh4JbQZb4ntyI\nayIdOAZ/jxRis6+aGNdCjqmb61yz/0ley/z4LM9U9ZhNh1SSqwa4yKX80QSxQ1Gp\npOFfI8iQABynSrn2w4mCyFEgldMW0B5MBMQKHCIJFphrEptuLoNiOhRpMKrRZ89y\nddOi0PGR2sqIcR7tSAMHacjPG15/RPXkugpoZ8GqrUVCo6Tf5r49wLnNArNf6tj4\nXShItqmXIDOYioyrFMShAQ3MorcEkyf+/+9OI7qhFw8SWxN6DkqmH7LlxzD9lDic\nW3BPbjs0UU4xyg2byokaKUCLlDbnbdsmm9kexIg0sQKBgQDnDwiPghY/SRKQacSj\nIskd5mcVkFBfJJ4lGERZWjxvQhyCArSiZEQu8hPwnEyrlQ48TltxEvLqxUphBs2D\nL+y3l6dc7WAP/Dq4zCgWO+cQ6m87m5hnSh3nXYwbBWZCBZBCj5OTW/Q51yWGsyhd\nEpMs5hgK3rvIm49nkPyYtcQz0QKBgQDjQgiegcUwWq3+31rCz2SrpFkX5K62QMjx\nM1Cm87056PSWenDwHDLRDZrsdGtpwAszl4pfSclBf8QMKju1bDurzkCN7S9S0KTX\nvYyJ4yh+K+hatv8dTRbk2y7ak2enrcbuqh/IHKh8LSMS8u67UhuA3pKQHDL22Xx3\nCuKsmSr8CQKBgBjjKqXieij44vIBInf74DPDRGkzMST+WbZfJcWGDapiMZXjWrd/\nG0T/OBybiTqWBIGEYx8LznRxKbDHvc0alWG1CQbeXpF6Noz/GHZEn3/X8IE4IjNF\n7XClR9kFPN1xofc5Zcjih6zPOrCGjZtwy79zTTWmhg12i/y4xixgr7BxAoGBAMmH\nNGeDwt73exbq8OySx75iVtOWasyaNNeYXuw+d06UY9nRqLd0+idi/kCzmNFFiWlt\n+Do6D6vy5mK3TQ28dkoL9Dkn3XB+L8BVifx5Id6Jh1pyr1dHlobKTAlu8FvFAgWB\nff+SUmMUD+ds4QHidRtZxPTg3N0EzpguYgcXKQQpAoGADWq61dYD9Iqp8Vx5LFg/\n7QgZSt+8XvlNHySnnzwIkc39Pd78xgt6TttL7UyagSgaAPktL7qpxk4WUXwCz9qD\ncGfEGOTQzpPMbPK4RGDdUSHNZeX68Umk49so2m/I2UJbANb4W7tgBpNww3Zvn8Nz\nkJbTiYKdInGu+SxQi6rcwWk=\n-----END PRIVATE KEY-----\n",
  "client_email": "firebase-adminsdk-htdbt@app-webasamblea.iam.gserviceaccount.com",
  "client_id": "103372428130719678872",
  "auth_uri": "https://accounts.google.com/o/oauth2/auth",
  "token_uri": "https://oauth2.googleapis.com/token",
  "auth_provider_x509_cert_url": "https://www.googleapis.com/oauth2/v1/certs",
  "client_x509_cert_url": "https://www.googleapis.com/robot/v1/metadata/x509/firebase-adminsdk-htdbt%40app-webasamblea.iam.gserviceaccount.com"
}
